Analysis
…
# count by variables
# overall
risk_excluded %>% 
  group_by(gender, condition, rel_self, rel_friend1, rel_friend2) %>% 
  count() %>% 
  group_by() %>% 
  mutate(percent = n/sum(n))

## # A tibble: 48 x 7
##       gender     condition  rel_self rel_friend1 rel_friend2     n percent
##    <dbl+lbl>     <dbl+lbl> <dbl+lbl>   <dbl+lbl>   <dbl+lbl> <int>   <dbl>
##  1  1 [Male] 1 [Self]        0 [YES]     0 [YES]     0 [YES]    36 0.0633 
##  2  1 [Male] 1 [Self]        0 [YES]     0 [YES]     1 [NO]      8 0.0141 
##  3  1 [Male] 1 [Self]        0 [YES]     1 [NO]      0 [YES]     6 0.0105 
##  4  1 [Male] 1 [Self]        0 [YES]     1 [NO]      1 [NO]      8 0.0141 
##  5  1 [Male] 1 [Self]        1 [NO]      0 [YES]     0 [YES]     5 0.00879
##  6  1 [Male] 1 [Self]        1 [NO]      0 [YES]     1 [NO]      5 0.00879
##  7  1 [Male] 1 [Self]        1 [NO]      1 [NO]      0 [YES]     5 0.00879
##  8  1 [Male] 1 [Self]        1 [NO]      1 [NO]      1 [NO]     28 0.0492 
##  9  1 [Male] 2 [Surrogate]   0 [YES]     0 [YES]     0 [YES]    22 0.0387 
## 10  1 [Male] 2 [Surrogate]   0 [YES]     0 [YES]     1 [NO]      8 0.0141 
## #  with 38 more rows
…
## # A tibble: 2 x 5
##       gender  mean    sd   min   max
## *  <dbl+lbl> <dbl> <dbl> <dbl> <dbl>
## 1 1 [Male]    38.5  12.0    19    76
## 2 2 [Female]  41.0  13.9    18    78

# inspect why there's NA for female age
risk_excluded %>% 
  filter(gender == 2)

## # A tibble: 274 x 22
##         consent  time   age  gender gendcond condition friend1 friend2 risklevel
##       <dbl+lbl> <dbl> <dbl> <dbl+l> <chr>    <dbl+lbl> <chr>   <chr>   <dbl+lbl>
##  1 1 [I consen   244    38 2 [Fem femsur   2 [Surro rachel  vane    5 [[]]   
##  2 1 [I consen   357    54 2 [Fem femself  1 [Self]  Clare   Mary    0 [Not a
##  3 1 [I consen   265    42 2 [Fem fempred  3 [Predi KW      SS      4 [[]]   
##  4 1 [I consen   203    58 2 [Fem femself  1 [Self]  eddie   ricky   3 [Moder
##  5 1 [I consen   286    37 2 [Fem fempred  3 [Predi 4       3       6 [Extre
##  6 1 [I consen   225    26 2 [Fem femself  1 [Self]  vivian  sil     2 [[]]   
##  7 1 [I consen   317    37 2 [Fem femsur   2 [Surro 4       6       5 [[]]   
##  8 1 [I consen   854    27 2 [Fem femsur   2 [Surro Betty   Sandy   4 [[]]   
##  9 1 [I consen   202    47 2 [Fem fempred  3 [Predi smith   steven  5 [[]]   
## 10 1 [I consen   332    59 2 [Fem femself  1 [Self]  Susie   Janice  5 [[]]   
## #  with 264 more rows, and 13 more variables: pos <dbl+lbl>, neg <dbl+lbl>,
## #   alert <dbl+lbl>, riskyrisk <dbl+lbl>, riskavrisk <dbl+lbl>,
## #   rel_self <dbl+lbl>, rel_friend1 <dbl+lbl>, rel_friend2 <dbl+lbl>,
## #   attention1 <dbl+lbl>, attention2 <dbl+lbl>, code <chr>, id <dbl>,
## #   code_mturk <chr>
…
## # A tibble: 2 x 5
##       gender  mean    sd   min   max
## *  <dbl+lbl> <dbl> <dbl> <dbl> <dbl>
## 1 1 [Male]    406.  356.    66  3142
## 2 2 [Female]  389.  294.    45  2495

Use rstatix to get summary data

# categorical variables
risk_excluded %>% 
  freq_table(gender, condition, rel_self, rel_friend1, rel_friend2)

## # A tibble: 48 x 7
##       gender     condition  rel_self rel_friend1 rel_friend2     n  prop
##    <dbl+lbl>     <dbl+lbl> <dbl+lbl>   <dbl+lbl>   <dbl+lbl> <int> <dbl>
##  1  1 [Male] 1 [Self]        0 [YES]     0 [YES]     0 [YES]    36  81.8
##  2  1 [Male] 1 [Self]        0 [YES]     0 [YES]     1 [NO]      8  18.2
##  3  1 [Male] 1 [Self]        0 [YES]     1 [NO]      0 [YES]     6  42.9
##  4  1 [Male] 1 [Self]        0 [YES]     1 [NO]      1 [NO]      8  57.1
##  5  1 [Male] 1 [Self]        1 [NO]      0 [YES]     0 [YES]     5  50  
##  6  1 [Male] 1 [Self]        1 [NO]      0 [YES]     1 [NO]      5  50  
##  7  1 [Male] 1 [Self]        1 [NO]      1 [NO]      0 [YES]     5  15.2
##  8  1 [Male] 1 [Self]        1 [NO]      1 [NO]      1 [NO]     28  84.8
##  9  1 [Male] 2 [Surrogate]   0 [YES]     0 [YES]     0 [YES]    22  73.3
## 10  1 [Male] 2 [Surrogate]   0 [YES]     0 [YES]     1 [NO]      8  26.7
## #  with 38 more rows
…
risk_excluded %>% 
  identify_outliers(time)

## # A tibble: 36 x 24
##         consent  time   age  gender gendcond condition friend1 friend2 risklevel
##       <dbl+lbl> <dbl> <dbl> <dbl+l> <chr>    <dbl+lbl> <chr>   <chr>   <dbl+lbl>
##  1 1 [I consen   854    27 2 [Fem femsur   2 [Surro Betty   Sandy   4 [[]]   
##  2 1 [I consen  2701    46 1 [Mal malpred  3 [Predi ROBERT  JOHN    4 [[]]   
##  3 1 [I consen   776    48 2 [Fem femsur   2 [Surro Robert  Johnson 6 [Extre
##  4 1 [I consen  2137    32 1 [Mal malself  1 [Self]  HENRY   TOM     3 [Moder
##  5 1 [I consen   780    51 1 [Mal malsur   2 [Surro Josue   Chris   3 [Moder
##  6 1 [I consen   765    47 2 [Fem fempred  3 [Predi Marie   Kim     2 [[]]   
##  7 1 [I consen   928    66 1 [Mal malsur   2 [Surro John    Peter   3 [Moder
##  8 1 [I consen  1009    28 1 [Mal malself  1 [Self]  Dan     Noah    4 [[]]   
##  9 1 [I consen  1045    27 1 [Mal malsur   2 [Surro JAMES   TOM     4 [[]]   
## 10 1 [I consen  1771    41 2 [Fem femsur   2 [Surro dustin  louzier 3 [Moder
## #  with 26 more rows, and 15 more variables: pos <dbl+lbl>, neg <dbl+lbl>,
## #   alert <dbl+lbl>, riskyrisk <dbl+lbl>, riskavrisk <dbl+lbl>,
## #   rel_self <dbl+lbl>, rel_friend1 <dbl+lbl>, rel_friend2 <dbl+lbl>,
## #   attention1 <dbl+lbl>, attention2 <dbl+lbl>, code <chr>, id <dbl>,
## #   code_mturk <chr>, is.outlier <lgl>, is.extreme <lgl>
…
