Analysis
…
# count by variables
# overall
risk_excluded %>% 
  group_by(gender, condition, rel_self, rel_friend1, rel_friend2) %>% 
  count() %>% 
  group_by() %>% 
  mutate(percent = n/sum(n))

## # A tibble: 48 x 7
##    gender condition  rel_self rel_friend1 rel_friend2     n percent
##    <fct>  <fct>      <fct>    <fct>       <fct>       <int>   <dbl>
##  1 1      Prediction 0        0           0              31 0.0545 
##  2 1      Prediction 0        0           1               8 0.0141 
##  3 1      Prediction 0        1           0               7 0.0123 
##  4 1      Prediction 0        1           1              14 0.0246 
##  5 1      Prediction 1        0           0               8 0.0141 
##  6 1      Prediction 1        0           1               3 0.00527
##  7 1      Prediction 1        1           0               6 0.0105 
##  8 1      Prediction 1        1           1              17 0.0299 
##  9 1      Self       0        0           0              36 0.0633 
## 10 1      Self       0        0           1               8 0.0141 
## #  with 38 more rows
…
## # A tibble: 2 x 5
##   gender  mean    sd   min   max
## * <fct>  <dbl> <dbl> <dbl> <dbl>
## 1 1       38.5  12.0    19    76
## 2 2       41.0  13.9    18    78

# inspect why there's NA for female age
risk_excluded %>% 
  filter(gender == 2)

## # A tibble: 274 x 22
##    consent  time   age gender gendcond condition friend1 friend2 risklevel   pos
##    <fct>   <dbl> <dbl> <fct>  <fct>    <fct>     <chr>   <chr>       <dbl> <dbl>
##  1 1         244    38 2      femsur   Surrogate rachel  vane            5     4
##  2 1         357    54 2      femself  Self      Clare   Mary            0     2
##  3 1         265    42 2      fempred  Predicti KW      SS              4     4
##  4 1         203    58 2      femself  Self      eddie   ricky           3     2
##  5 1         286    37 2      fempred  Predicti 4       3               6     3
##  6 1         225    26 2      femself  Self      vivian  sil             2     3
##  7 1         317    37 2      femsur   Surrogate 4       6               5     4
##  8 1         854    27 2      femsur   Surrogate Betty   Sandy           4     3
##  9 1         202    47 2      fempred  Predicti smith   steven          5     4
## 10 1         332    59 2      femself  Self      Susie   Janice          5     3
## #  with 264 more rows, and 12 more variables: neg <dbl>, alert <dbl>,
## #   riskyrisk <dbl>, riskavrisk <dbl>, rel_self <fct>, rel_friend1 <fct>,
## #   rel_friend2 <fct>, attention1 <dbl>, attention2 <dbl>, code <chr>,
## #   id <dbl>, code_mturk <chr>
…
## # A tibble: 2 x 5
##   gender  mean    sd   min   max
## * <fct>  <dbl> <dbl> <dbl> <dbl>
## 1 1       406.  356.    66  3142
## 2 2       389.  294.    45  2495

Use rstatix to get summary data

# categorical variables
risk_excluded %>% 
  freq_table(gender, condition, rel_self, rel_friend1, rel_friend2)

## # A tibble: 48 x 7
##    gender condition  rel_self rel_friend1 rel_friend2     n  prop
##    <fct>  <fct>      <fct>    <fct>       <fct>       <int> <dbl>
##  1 1      Prediction 0        0           0              31  79.5
##  2 1      Prediction 0        0           1               8  20.5
##  3 1      Prediction 0        1           0               7  33.3
##  4 1      Prediction 0        1           1              14  66.7
##  5 1      Prediction 1        0           0               8  72.7
##  6 1      Prediction 1        0           1               3  27.3
##  7 1      Prediction 1        1           0               6  26.1
##  8 1      Prediction 1        1           1              17  73.9
##  9 1      Self       0        0           0              36  81.8
## 10 1      Self       0        0           1               8  18.2
## #  with 38 more rows
…
## # A tibble: 3 x 24
##   consent  time   age gender gendcond condition  friend1 friend2 risklevel   pos
##   <fct>   <dbl> <dbl> <fct>  <fct>    <fct>      <chr>   <chr>       <dbl> <dbl>
## 1 1         384    77 2      fempred  Prediction Terri   Tracy           2     4
## 2 1         750    78 2      femsur   Surrogate  Barbara Rosetta         5     4
## 3 1         424    76 1      malself  Self       Bob     Al              5     3
## #  with 14 more variables: neg <dbl>, alert <dbl>, riskyrisk <dbl>,
## #   riskavrisk <dbl>, rel_self <fct>, rel_friend1 <fct>, rel_friend2 <fct>,
## #   attention1 <dbl>, attention2 <dbl>, code <chr>, id <dbl>, code_mturk <chr>,
## #   is.outlier <lgl>, is.extreme <lgl>

risk_excluded %>% 
  identify_outliers(time)

## # A tibble: 36 x 24
##    consent  time   age gender gendcond condition friend1 friend2 risklevel   pos
##    <fct>   <dbl> <dbl> <fct>  <fct>    <fct>     <chr>   <chr>       <dbl> <dbl>
##  1 1         854    27 2      femsur   Surrogate Betty   Sandy           4     3
##  2 1        2701    46 1      malpred  Predicti ROBERT  JOHN            4     2
##  3 1         776    48 2      femsur   Surrogate Robert  Johnson         6     4
##  4 1        2137    32 1      malself  Self      HENRY   TOM             3     3
##  5 1         780    51 1      malsur   Surrogate Josue   Chris           3     2
##  6 1         765    47 2      fempred  Predicti Marie   Kim             2     3
##  7 1         928    66 1      malsur   Surrogate John    Peter           3     4
##  8 1        1009    28 1      malself  Self      Dan     Noah            4     3
##  9 1        1045    27 1      malsur   Surrogate JAMES   TOM             4     2
## 10 1        1771    41 2      femsur   Surrogate dustin  louzier         3     2
## #  with 26 more rows, and 14 more variables: neg <dbl>, alert <dbl>,
## #   riskyrisk <dbl>, riskavrisk <dbl>, rel_self <fct>, rel_friend1 <fct>,
## #   rel_friend2 <fct>, attention1 <dbl>, attention2 <dbl>, code <chr>,
## #   id <dbl>, code_mturk <chr>, is.outlier <lgl>, is.extreme <lgl>
…
